Climate,RepReg,
1650-14535,Daintree-Mossman,
1635-14535,Daintree-Mossman,
1620-14540,Daintree-Mossman,
1660-14545,Daintree-Mossman,
1775-14590,Johnstone,
1765-14595,Johnstone,
1755-14600,Johnstone,
1780-14605,Johnstone,
1750-14600,Johnstone,
1760-14605,Johnstone,
1700-14570,Mulgrave-Russell,
1725-14570,Mulgrave-Russell,
1680-14565,Mulgrave-Russell,
1725-14580,Mulgrave-Russell,
1710-14585,Mulgrave-Russell,
1750-14585,Mulgrave-Russell,
1695-14585,Mulgrave-Russell,
1735-14585,Mulgrave-Russell,
1740-14600,Mulgrave-Russell,
1725-14595,Mulgrave-Russell,
1800-14580,Tully-Murray,
1780-14570,Tully-Murray,
1795-14585,Tully-Murray,
1810-14595,Tully-Murray,
1825-14600,Tully-Murray,
1790-14595,Tully-Murray,
1800-14600,Tully-Murray,
1825-14575,Herbert,
1845-14595,Herbert,
1870-14590,Herbert,
1870-14615,Herbert,
1850-14610,Herbert,
1885-14620,Herbert,
1855-14625,Herbert,
1740-14550,Tablelands,Atherton (irr4)
1705-14545,Tablelands,Mareeba (irr5)
1680-14550,Tablelands,Mareeba (irr5)
1715-14555,Tablelands,Atherton (irr4)
1695-14560,Tablelands,Mareeba (irr5)
